C:\Work\Maxima\2022\Innopolis\newMail\stc-22-19\Projects\2.4.jUnit\jUnit\src\main\java\lection\NumbersProcessor.java
C:\Work\Maxima\2022\Innopolis\newMail\stc-22-19\Projects\2.4.jUnit\jUnit\src\main\java\lection\NumberToBooleanVector.java
C:\Work\Maxima\2022\Innopolis\newMail\stc-22-19\Projects\2.4.jUnit\jUnit\src\main\java\lection\Main.java
C:\Work\Maxima\2022\Innopolis\newMail\stc-22-19\Projects\2.4.jUnit\jUnit\src\main\java\lection\NumberUtil.java
