C:\Work\Maxima\2022\Innopolis\newMail\stc-22-19\Projects\2.3 JDBC\2.3.JDBC\src\main\java\pro\Main.java
C:\Work\Maxima\2022\Innopolis\newMail\stc-22-19\Projects\2.3 JDBC\2.3.JDBC\src\main\java\simpleVersion\DBConnection.java
C:\Work\Maxima\2022\Innopolis\newMail\stc-22-19\Projects\2.3 JDBC\2.3.JDBC\src\main\java\simpleVersion\Main.java
C:\Work\Maxima\2022\Innopolis\newMail\stc-22-19\Projects\2.3 JDBC\2.3.JDBC\src\main\java\duplicateCode\DBConnection.java
C:\Work\Maxima\2022\Innopolis\newMail\stc-22-19\Projects\2.3 JDBC\2.3.JDBC\src\main\java\duplicateCode\Main.java
C:\Work\Maxima\2022\Innopolis\newMail\stc-22-19\Projects\2.3 JDBC\2.3.JDBC\src\main\java\pro\Car.java
C:\Work\Maxima\2022\Innopolis\newMail\stc-22-19\Projects\2.3 JDBC\2.3.JDBC\src\main\java\pro\DBUtil.java
C:\Work\Maxima\2022\Innopolis\newMail\stc-22-19\Projects\2.3 JDBC\2.3.JDBC\src\main\java\simpleVersion\Car.java
