C:\Work\Maxima\2022\Innopolis\newMail\stc-22-19\Projects\2.1 Jar, Maven\2.1.Maven\src\main\java\oldVersion\Car.java
C:\Work\Maxima\2022\Innopolis\newMail\stc-22-19\Projects\2.1 Jar, Maven\2.1.Maven\src\main\java\oldVersion\Main.java
C:\Work\Maxima\2022\Innopolis\newMail\stc-22-19\Projects\2.1 Jar, Maven\2.1.Maven\src\main\java\newVersion\Main.java
C:\Work\Maxima\2022\Innopolis\newMail\stc-22-19\Projects\2.1 Jar, Maven\2.1.Maven\src\main\java\newVersion\Car.java
